{
  "textureWidth":16,
  "textureHeight":16,
  "textures":{
    "hair":"horse-hair"
  },
  "textureSizes":{
    "hair":[
      96,
      96
    ]
  },
  "elements":[
    {
      "name":"Hair.004",
      "from":[
        -7.576379060745239,
        13.354431629180908,
        -3.322922468185425
      ],
      "to":[
        -0.03637886047363281,
        23.214431524276733,
        3.057077407836914
      ],
      "rotationOrigin":[
        -3.875978946685791,
        19.270431518554688,
        -0.07492256164550781
      ],
      "group":"hair-emoshy",
      "faces":{
        "north":{
          "texture":"#hair",
          "uv":[
            66.0,
            69.0,
            79.00000190734863,
            86.00000023841858
          ],
          "autoUv":false
        },
        "east":{
          "texture":"#hair",
          "uv":[
            67.00000190734863,
            68.00000095367432,
            78.0,
            84.99999976158142
          ],
          "autoUv":false
        },
        "south":{
          "texture":"#hair",
          "uv":[
            81.0,
            37.00000190734863,
            69.0,
            57.999999046325684
          ],
          "autoUv":false
        },
        "west":{
          "texture":"#hair",
          "uv":[
            11.000000238418579,
            1.0000019073486328,
            22.000000476837158,
            19.000001907348633
          ],
          "autoUv":false
        },
        "up":{
          "texture":"#hair",
          "uv":[
            66.0,
            63.999999046325684,
            76.99999809265137,
            76.99999952316284
          ],
          "autoUv":false,
          "rotation":90
        },
        "down":{
          "texture":"#hair",
          "uv":[
            27.0,
            93.99999994039536,
            33.999999046325684,
            84.0
          ],
          "autoUv":false,
          "rotation":270
        }
      },
      "children":[
        {
          "name":"Hairstrand.037",
          "from":[
            -1.5666499137878418,
            2.8228049278259277,
            -0.10909104347229004
          ],
          "to":[
            0.4102001190185547,
            8.622806072235107,
            1.0509092807769775
          ],
          "rotationOrigin":[
            -0.5782248973846436,
            8.622806072235107,
            0.47090911865234375
          ],
          "rotationX":17.214622661445254,
          "rotationY":1.2168163433277543,
          "rotationZ":-3.8127400876348783,
          "group":"hair-emoshy",
          "faces":{
            "north":{
              "texture":"#hair",
              "uv":[
                67.00000190734863,
                73.00000047683716,
                70.00000190734863,
                82.99999952316284
              ],
              "autoUv":false
            },
            "east":{
              "texture":"#hair",
              "uv":[
                70.00000190734863,
                73.00000047683716,
                72.0,
                82.99999952316284
              ],
              "autoUv":false
            },
            "south":{
              "texture":"#hair",
              "uv":[
                69.0,
                73.00000047683716,
                72.0,
                82.99999952316284
              ],
              "autoUv":false
            },
            "west":{
              "texture":"#hair",
              "uv":[
                72.0,
                73.00000047683716,
                73.99999809265137,
                82.99999952316284
              ],
              "autoUv":false
            },
            "up":{
              "texture":"#hair",
              "uv":[
                67.99999809265137,
                43.99999809265137,
                70.00000190734863,
                46.00000190734863
              ],
              "autoUv":false
            },
            "down":{
              "texture":"#hair",
              "uv":[
                76.99999809265137,
                50.000000953674316,
                75.0,
                48.0
              ],
              "autoUv":false
            }
          },
          "children":[]
        },
        {
          "name":"Hairstrand.038",
          "from":[
            0.08163235036456373,
            2.3158841133117676,
            4.813557628699061
          ],
          "to":[
            2.6311958089677114,
            9.56483793258667,
            5.973557468346837
          ],
          "rotationOrigin":[
            1.3564140796661377,
            9.56483793258667,
            5.393557548522949
          ],
          "rotationX":117.78560136887273,
          "rotationY":47.85885889161796,
          "rotationZ":-43.35437645475123,
          "group":"hair-emoshy",
          "faces":{
            "north":{
              "texture":"#hair",
              "uv":[
                75.0,
                33.0,
                78.0,
                45.0
              ],
              "autoUv":false
            },
            "east":{
              "texture":"#hair",
              "uv":[
                67.00000190734863,
                72.0,
                69.0,
                84.0
              ],
              "autoUv":false
            },
            "south":{
              "texture":"#hair",
              "uv":[
                61.00000190734863,
                75.0,
                64.99999809265137,
                87.0
              ],
              "autoUv":false
            },
            "west":{
              "texture":"#hair",
              "uv":[
                73.00000190734863,
                71.00000095367432,
                75.0,
                82.99999952316284
              ],
              "autoUv":false
            },
            "up":{
              "texture":"#hair",
              "uv":[
                42.0,
                3.0,
                44.000000953674316,
                7.000001907348633
              ],
              "autoUv":false,
              "rotation":90
            },
            "down":{
              "texture":"#hair",
              "uv":[
                76.99999809265137,
                50.000000953674316,
                75.0,
                48.0
              ],
              "autoUv":false,
              "rotation":270
            }
          },
          "children":[]
        },
        {
          "name":"Hairstrand.062",
          "from":[
            0.6958721876144409,
            -0.42641592025756836,
            -2.0819591283798218
          ],
          "to":[
            2.99386465549469,
            6.315804958343506,
            -0.7335149049758911
          ],
          "rotationOrigin":[
            1.8448684215545654,
            6.315804958343506,
            -1.4077370166778564
          ],
          "rotationX":-8.139439103708522,
          "rotationY":-3.0784328532691543,
          "rotationZ":-9.987129925149324,
          "group":"hair-emoshy",
          "faces":{
            "north":{
              "texture":"#hair",
              "uv":[
                67.99999809265137,
                73.00000047683716,
                70.99999809265137,
                82.99999952316284
              ],
              "autoUv":false
            },
            "east":{
              "texture":"#hair",
              "uv":[
                70.99999809265137,
                73.00000047683716,
                73.00000190734863,
                82.99999952316284
              ],
              "autoUv":false
            },
            "south":{
              "texture":"#hair",
              "uv":[
                70.00000190734863,
                73.00000047683716,
                73.00000190734863,
                82.99999952316284
              ],
              "autoUv":false
            },
            "west":{
              "texture":"#hair",
              "uv":[
                73.00000190734863,
                73.00000047683716,
                75.0,
                82.99999952316284
              ],
              "autoUv":false
            },
            "up":{
              "texture":"#hair",
              "uv":[
                67.99999809265137,
                43.99999809265137,
                70.00000190734863,
                46.00000190734863
              ],
              "autoUv":false
            },
            "down":{
              "texture":"#hair",
              "uv":[
                76.99999809265137,
                50.000000953674316,
                75.0,
                48.0
              ],
              "autoUv":false
            }
          },
          "children":[]
        },
        {
          "name":"hideme.005",
          "from":[
            2.384185791015625e-07,
            -4.76837158203125e-07,
            0.0
          ],
          "to":[
            1.160000205039978,
            1.1599994897842407,
            1.159999966621399
          ],
          "rotationOrigin":[
            2.384185791015625e-07,
            -4.76837158203125e-07,
            0.0
          ],
          "group":"hair-emoshy",
          "faces":{
            "north":{
              "texture":"#hair",
              "uv":[
                0.0,
                1.9999980926513672,
                2.0000000596046448,
                4.000001907348633
              ],
              "autoUv":false
            },
            "east":{
              "texture":"#hair",
              "uv":[
                2.0000000596046448,
                1.9999980926513672,
                4.0000001192092896,
                4.000001907348633
              ],
              "autoUv":false
            },
            "south":{
              "texture":"#hair",
              "uv":[
                4.0000001192092896,
                1.9999980926513672,
                6.0,
                4.000001907348633
              ],
              "autoUv":false
            },
            "west":{
              "texture":"#hair",
              "uv":[
                6.0,
                1.9999980926513672,
                8.000000238418579,
                4.000001907348633
              ],
              "autoUv":false
            },
            "up":{
              "texture":"#hair",
              "uv":[
                0.0,
                0.0,
                2.0000000596046448,
                1.9999980926513672
              ],
              "autoUv":false
            },
            "down":{
              "texture":"#hair",
              "uv":[
                4.0000001192092896,
                1.9999980926513672,
                2.0000000596046448,
                0.0
              ],
              "autoUv":false
            }
          },
          "children":[
            {
              "name":"Hairstrand.043",
              "from":[
                5.08885395526886,
                0.6809449195861816,
                3.920458137989044
              ],
              "to":[
                7.597507357597351,
                7.905921936035156,
                5.083454787731171
              ],
              "rotationOrigin":[
                6.3431806564331055,
                7.905921936035156,
                4.501956462860107
              ],
              "rotationX":-32.620498532549824,
              "rotationY":35.799340289260044,
              "rotationZ":33.14181955114022,
              "group":"hair-emoshy",
              "faces":{
                "north":{
                  "texture":"#hair",
                  "uv":[
                    66.0,
                    73.99999952316284,
                    69.0,
                    84.0
                  ],
                  "autoUv":false
                },
                "east":{
                  "texture":"#hair",
                  "uv":[
                    69.0,
                    73.99999952316284,
                    72.0,
                    84.0
                  ],
                  "autoUv":false
                },
                "south":{
                  "texture":"#hair",
                  "uv":[
                    72.0,
                    73.99999952316284,
                    75.0,
                    84.0
                  ],
                  "autoUv":false
                },
                "west":{
                  "texture":"#hair",
                  "uv":[
                    75.0,
                    73.99999952316284,
                    78.0,
                    84.0
                  ],
                  "autoUv":false
                },
                "up":{
                  "texture":"#hair",
                  "uv":[
                    67.99999809265137,
                    43.99999809265137,
                    70.00000190734863,
                    46.00000190734863
                  ],
                  "autoUv":false
                },
                "down":{
                  "texture":"#hair",
                  "uv":[
                    76.99999809265137,
                    50.000000953674316,
                    75.0,
                    48.0
                  ],
                  "autoUv":false
                }
              },
              "children":[]
            },
            {
              "name":"Hairstrand.046",
              "from":[
                7.161693572998047,
                -1.6659798622131348,
                2.363508462905884
              ],
              "to":[
                8.430926322937012,
                6.022151947021484,
                5.907853841781616
              ],
              "rotationOrigin":[
                7.796309947967529,
                6.022151947021484,
                4.13568115234375
              ],
              "rotationX":36.58853108181459,
              "rotationY":11.37062060002855,
              "rotationZ":12.676011476843264,
              "group":"hair-emoshy",
              "faces":{
                "north":{
                  "texture":"#hair",
                  "uv":[
                    67.99999809265137,
                    72.0,
                    70.00000190734863,
                    82.99999952316284
                  ],
                  "autoUv":false
                },
                "east":{
                  "texture":"#hair",
                  "uv":[
                    70.00000190734863,
                    72.0,
                    75.0,
                    82.99999952316284
                  ],
                  "autoUv":false
                },
                "south":{
                  "texture":"#hair",
                  "uv":[
                    75.0,
                    72.0,
                    76.99999809265137,
                    82.99999952316284
                  ],
                  "autoUv":false
                },
                "west":{
                  "texture":"#hair",
                  "uv":[
                    58.99999809265137,
                    76.00000047683716,
                    64.00000190734863,
                    87.0
                  ],
                  "autoUv":false
                },
                "up":{
                  "texture":"#hair",
                  "uv":[
                    67.99999809265137,
                    43.99999809265137,
                    70.00000190734863,
                    46.00000190734863
                  ],
                  "autoUv":false
                },
                "down":{
                  "texture":"#hair",
                  "uv":[
                    76.99999809265137,
                    50.000000953674316,
                    75.0,
                    48.0
                  ],
                  "autoUv":false
                }
              },
              "children":[]
            },
            {
              "name":"Hairstrand.050",
              "from":[
                6.5688828229904175,
                2.678471565246582,
                -0.33896613121032715
              ],
              "to":[
                7.728882908821106,
                8.597923278808594,
                2.4229094982147217
              ],
              "rotationOrigin":[
                7.148882865905762,
                8.597923278808594,
                1.0419716835021973
              ],
              "rotationX":12.513319785908145,
              "rotationY":37.24171914761583,
              "rotationZ":21.159137161850367,
              "group":"hair-emoshy",
              "faces":{
                "north":{
                  "texture":"#hair",
                  "uv":[
                    66.0,
                    73.00000047683716,
                    67.99999809265137,
                    82.99999952316284
                  ],
                  "autoUv":false
                },
                "east":{
                  "texture":"#hair",
                  "uv":[
                    67.99999809265137,
                    73.00000047683716,
                    72.0,
                    82.99999952316284
                  ],
                  "autoUv":false
                },
                "south":{
                  "texture":"#hair",
                  "uv":[
                    72.0,
                    73.00000047683716,
                    73.99999809265137,
                    82.99999952316284
                  ],
                  "autoUv":false
                },
                "west":{
                  "texture":"#hair",
                  "uv":[
                    73.99999809265137,
                    73.00000047683716,
                    78.0,
                    82.99999952316284
                  ],
                  "autoUv":false
                },
                "up":{
                  "texture":"#hair",
                  "uv":[
                    67.99999809265137,
                    43.99999809265137,
                    70.00000190734863,
                    46.00000190734863
                  ],
                  "autoUv":false
                },
                "down":{
                  "texture":"#hair",
                  "uv":[
                    76.99999809265137,
                    50.000000953674316,
                    75.0,
                    48.0
                  ],
                  "autoUv":false
                }
              },
              "children":[]
            },
            {
              "name":"Hairstrand.051",
              "from":[
                3.0737799406051636,
                -2.0406041145324707,
                -1.5290719866752625
              ],
              "to":[
                6.582836270332336,
                5.154937744140625,
                -0.3687003254890442
              ],
              "rotationOrigin":[
                4.82830810546875,
                5.154937744140625,
                -0.9488861560821533
              ],
              "rotationX":-6.432791688628484,
              "rotationY":-3.150266806543825,
              "rotationZ":2.911360876641942,
              "group":"hair-emoshy",
              "faces":{
                "north":{
                  "texture":"#hair",
                  "uv":[
                    60.0,
                    78.0,
                    64.99999809265137,
                    87.0
                  ],
                  "autoUv":false
                },
                "east":{
                  "texture":"#hair",
                  "uv":[
                    67.99999809265137,
                    75.0,
                    70.00000190734863,
                    82.99999952316284
                  ],
                  "autoUv":false
                },
                "south":{
                  "texture":"#hair",
                  "uv":[
                    79.00000190734863,
                    34.00000190734863,
                    84.0,
                    43.00000190734863
                  ],
                  "autoUv":false
                },
                "west":{
                  "texture":"#hair",
                  "uv":[
                    70.00000190734863,
                    75.0,
                    72.0,
                    82.99999952316284
                  ],
                  "autoUv":false
                },
                "up":{
                  "texture":"#hair",
                  "uv":[
                    67.99999809265137,
                    43.99999809265137,
                    70.00000190734863,
                    46.00000190734863
                  ],
                  "autoUv":false
                },
                "down":{
                  "texture":"#hair",
                  "uv":[
                    76.99999809265137,
                    50.000000953674316,
                    75.0,
                    48.0
                  ],
                  "autoUv":false
                }
              },
              "children":[]
            },
            {
              "name":"Hairstrand.052",
              "from":[
                4.6288474798202515,
                3.9779810905456543,
                -0.38221627473831177
              ],
              "to":[
                7.119564652442932,
                8.61798095703125,
                0.7777836918830872
              ],
              "rotationOrigin":[
                5.874206066131592,
                8.61798095703125,
                0.1977837085723877
              ],
              "rotationX":30.000007665015225,
              "rotationY":-1.530622984348416e-07,
              "rotationZ":10.000003977961152,
              "group":"hair-emoshy",
              "faces":{
                "north":{
                  "texture":"#hair",
                  "uv":[
                    67.00000190734863,
                    75.0,
                    70.99999809265137,
                    82.00000047683716
                  ],
                  "autoUv":false
                },
                "east":{
                  "texture":"#hair",
                  "uv":[
                    70.00000190734863,
                    75.0,
                    72.0,
                    82.00000047683716
                  ],
                  "autoUv":false
                },
                "south":{
                  "texture":"#hair",
                  "uv":[
                    73.00000190734863,
                    75.0,
                    76.99999809265137,
                    82.00000047683716
                  ],
                  "autoUv":false
                },
                "west":{
                  "texture":"#hair",
                  "uv":[
                    72.0,
                    75.0,
                    73.99999809265137,
                    82.00000047683716
                  ],
                  "autoUv":false
                },
                "up":{
                  "texture":"#hair",
                  "uv":[
                    67.99999809265137,
                    43.99999809265137,
                    70.00000190734863,
                    46.00000190734863
                  ],
                  "autoUv":false
                },
                "down":{
                  "texture":"#hair",
                  "uv":[
                    76.99999809265137,
                    50.000000953674316,
                    75.0,
                    48.0
                  ],
                  "autoUv":false
                }
              },
              "children":[]
            },
            {
              "name":"Hairstrand.053",
              "from":[
                1.8824723958969116,
                4.417388439178467,
                -0.11376410722732544
              ],
              "to":[
                4.464115738868713,
                9.504108428955078,
                1.0462358593940735
              ],
              "rotationOrigin":[
                3.1732940673828125,
                9.504108428955078,
                0.466235876083374
              ],
              "rotationX":31.577252023627494,
              "rotationY":10.881445012993176,
              "rotationZ":-17.320900404930654,
              "group":"hair-emoshy",
              "faces":{
                "north":{
                  "texture":"#hair",
                  "uv":[
                    70.00000190734863,
                    75.0,
                    73.99999809265137,
                    82.99999952316284
                  ],
                  "autoUv":false
                },
                "east":{
                  "texture":"#hair",
                  "uv":[
                    70.99999809265137,
                    75.0,
                    75.0,
                    82.99999952316284
                  ],
                  "autoUv":false
                },
                "south":{
                  "texture":"#hair",
                  "uv":[
                    75.0,
                    73.00000047683716,
                    79.00000190734863,
                    84.99999976158142
                  ],
                  "autoUv":false
                },
                "west":{
                  "texture":"#hair",
                  "uv":[
                    75.0,
                    75.0,
                    79.00000190734863,
                    82.99999952316284
                  ],
                  "autoUv":false
                },
                "up":{
                  "texture":"#hair",
                  "uv":[
                    67.99999809265137,
                    43.99999809265137,
                    70.00000190734863,
                    46.00000190734863
                  ],
                  "autoUv":false
                },
                "down":{
                  "texture":"#hair",
                  "uv":[
                    76.99999809265137,
                    50.000000953674316,
                    75.0,
                    48.0
                  ],
                  "autoUv":false
                }
              },
              "children":[]
            },
            {
              "name":"Hairstrand.054",
              "from":[
                4.263734221458435,
                -1.4793076515197754,
                -0.4701838493347168
              ],
              "to":[
                7.491298317909241,
                6.181148529052734,
                0.6898159980773926
              ],
              "rotationOrigin":[
                5.877516269683838,
                6.181148529052734,
                0.10981607437133789
              ],
              "rotationX":16.99339283422854,
              "rotationY":-29.62706567595419,
              "rotationZ":16.955548463584794,
              "group":"hair-emoshy",
              "faces":{
                "north":{
                  "texture":"#hair",
                  "uv":[
                    58.00000190734863,
                    71.00000095367432,
                    52.99999809265137,
                    84.99999976158142
                  ],
                  "autoUv":false
                },
                "east":{
                  "texture":"#hair",
                  "uv":[
                    69.0,
                    72.0,
                    72.0,
                    86.00000023841858
                  ],
                  "autoUv":false
                },
                "south":{
                  "texture":"#hair",
                  "uv":[
                    75.0,
                    31.000001907348633,
                    79.99999809265137,
                    45.0
                  ],
                  "autoUv":false
                },
                "west":{
                  "texture":"#hair",
                  "uv":[
                    73.99999809265137,
                    72.0,
                    76.99999809265137,
                    86.00000023841858
                  ],
                  "autoUv":false
                },
                "up":{
                  "texture":"#hair",
                  "uv":[
                    69.0,
                    43.99999809265137,
                    70.99999809265137,
                    46.00000190734863
                  ],
                  "autoUv":false
                },
                "down":{
                  "texture":"#hair",
                  "uv":[
                    78.0,
                    50.000000953674316,
                    76.00000190734863,
                    48.0
                  ],
                  "autoUv":false
                }
              },
              "children":[]
            },
            {
              "name":"Hairstrand.055",
              "from":[
                5.651558698463041,
                3.9019594192504883,
                3.4832339998449284
              ],
              "to":[
                7.8498317586902795,
                8.771747589111328,
                6.153717446688274
              ],
              "rotationOrigin":[
                6.75069522857666,
                8.771747589111328,
                4.818475723266602
              ],
              "rotationX":-9.923143005457353,
              "rotationY":-21.408025840111044,
              "rotationZ":31.38965063278934,
              "group":"hair-emoshy",
              "faces":{
                "north":{
                  "texture":"#hair",
                  "uv":[
                    67.00000190734863,
                    73.99999952316284,
                    70.99999809265137,
                    82.99999952316284
                  ],
                  "autoUv":false
                },
                "east":{
                  "texture":"#hair",
                  "uv":[
                    70.99999809265137,
                    73.99999952316284,
                    75.0,
                    82.99999952316284
                  ],
                  "autoUv":false
                },
                "south":{
                  "texture":"#hair",
                  "uv":[
                    75.0,
                    73.99999952316284,
                    79.00000190734863,
                    82.99999952316284
                  ],
                  "autoUv":false
                },
                "west":{
                  "texture":"#hair",
                  "uv":[
                    70.99999809265137,
                    71.00000095367432,
                    75.0,
                    82.99999952316284
                  ],
                  "autoUv":false
                },
                "up":{
                  "texture":"#hair",
                  "uv":[
                    70.99999809265137,
                    68.00000095367432,
                    75.0,
                    71.00000095367432
                  ],
                  "autoUv":false,
                  "rotation":270
                },
                "down":{
                  "texture":"#hair",
                  "uv":[
                    76.99999809265137,
                    50.000000953674316,
                    75.0,
                    48.0
                  ],
                  "autoUv":false,
                  "rotation":90
                }
              },
              "children":[]
            },
            {
              "name":"Hairstrand.056",
              "from":[
                5.844156384468079,
                1.1626801490783691,
                5.526435375213623
              ],
              "to":[
                8.556520342826843,
                7.051126480102539,
                6.686435222625732
              ],
              "rotationOrigin":[
                7.200338363647461,
                7.051126480102539,
                6.106435298919678
              ],
              "rotationX":-24.846122794694733,
              "rotationY":-16.225105835628828,
              "rotationZ":-23.467104186174573,
              "group":"hair-emoshy",
              "faces":{
                "north":{
                  "texture":"#hair",
                  "uv":[
                    60.0,
                    76.99999952316284,
                    64.99999809265137,
                    87.0
                  ],
                  "autoUv":false
                },
                "east":{
                  "texture":"#hair",
                  "uv":[
                    66.0,
                    76.00000047683716,
                    67.99999809265137,
                    84.0
                  ],
                  "autoUv":false
                },
                "south":{
                  "texture":"#hair",
                  "uv":[
                    78.0,
                    34.00000190734863,
                    82.99999809265137,
                    43.99999809265137
                  ],
                  "autoUv":false
                },
                "west":{
                  "texture":"#hair",
                  "uv":[
                    73.99999809265137,
                    73.00000047683716,
                    76.00000190734863,
                    81.0
                  ],
                  "autoUv":false
                },
                "up":{
                  "texture":"#hair",
                  "uv":[
                    67.99999809265137,
                    73.00000047683716,
                    70.99999809265137,
                    75.0
                  ],
                  "autoUv":false
                },
                "down":{
                  "texture":"#hair",
                  "uv":[
                    76.99999809265137,
                    50.000000953674316,
                    75.0,
                    48.0
                  ],
                  "autoUv":false
                }
              },
              "children":[]
            },
            {
              "name":"Hairstrand.057",
              "from":[
                6.623534321784973,
                0.7355494499206543,
                5.936979651451111
              ],
              "to":[
                9.044702410697937,
                7.3486175537109375,
                7.103681206703186
              ],
              "rotationOrigin":[
                7.834118366241455,
                7.3486175537109375,
                6.520330429077148
              ],
              "rotationX":-14.551712904070289,
              "rotationY":35.634524409493054,
              "rotationZ":-10.41124539901939,
              "group":"hair-emoshy",
              "faces":{
                "north":{
                  "texture":"#hair",
                  "uv":[
                    67.99999809265137,
                    73.00000047683716,
                    72.0,
                    84.0
                  ],
                  "autoUv":false
                },
                "east":{
                  "texture":"#hair",
                  "uv":[
                    67.00000190734863,
                    72.0,
                    69.0,
                    82.99999952316284
                  ],
                  "autoUv":false
                },
                "south":{
                  "texture":"#hair",
                  "uv":[
                    67.99999809265137,
                    73.00000047683716,
                    72.0,
                    84.0
                  ],
                  "autoUv":false
                },
                "west":{
                  "texture":"#hair",
                  "uv":[
                    72.0,
                    73.00000047683716,
                    73.99999809265137,
                    84.0
                  ],
                  "autoUv":false
                },
                "up":{
                  "texture":"#hair",
                  "uv":[
                    67.99999809265137,
                    69.99999904632568,
                    70.99999809265137,
                    73.00000047683716
                  ],
                  "autoUv":false
                },
                "down":{
                  "texture":"#hair",
                  "uv":[
                    76.99999809265137,
                    50.000000953674316,
                    75.0,
                    48.0
                  ],
                  "autoUv":false
                }
              },
              "children":[]
            },
            {
              "name":"Hairstrand.058",
              "from":[
                7.541224420070646,
                7.328626394271851,
                -1.3415852341827685
              ],
              "to":[
                8.70122469658185,
                9.594782423918732,
                5.747867182272368
              ],
              "rotationOrigin":[
                8.121224403381348,
                8.46170425415039,
                5.747867107391357
              ],
              "rotationX":19.31528319917582,
              "rotationY":13.960792257837465,
              "rotationZ":40.99581992679203,
              "group":"hair-emoshy",
              "faces":{
                "north":{
                  "texture":"#hair",
                  "uv":[
                    75.0,
                    48.0,
                    76.99999809265137,
                    50.000000953674316
                  ],
                  "autoUv":false,
                  "rotation":90
                },
                "east":{
                  "texture":"#hair",
                  "uv":[
                    67.00000190734863,
                    71.00000095367432,
                    70.99999809265137,
                    82.99999952316284
                  ],
                  "autoUv":false,
                  "rotation":270
                },
                "south":{
                  "texture":"#hair",
                  "uv":[
                    67.99999809265137,
                    43.99999809265137,
                    70.00000190734863,
                    46.00000190734863
                  ],
                  "autoUv":false,
                  "rotation":90
                },
                "west":{
                  "texture":"#hair",
                  "uv":[
                    73.00000190734863,
                    69.99999904632568,
                    76.00000190734863,
                    82.00000047683716
                  ],
                  "autoUv":false,
                  "rotation":90
                },
                "up":{
                  "texture":"#hair",
                  "uv":[
                    76.00000190734863,
                    69.99999904632568,
                    79.00000190734863,
                    82.00000047683716
                  ],
                  "autoUv":false,
                  "rotation":180
                },
                "down":{
                  "texture":"#hair",
                  "uv":[
                    72.0,
                    82.99999952316284,
                    69.0,
                    71.00000095367432
                  ],
                  "autoUv":false
                }
              },
              "children":[]
            },
            {
              "name":"Hairstrand.059",
              "from":[
                7.431948602199554,
                2.7455010414123535,
                2.7068328857421875
              ],
              "to":[
                8.591948568820953,
                8.976055145263672,
                5.968585014343262
              ],
              "rotationOrigin":[
                8.011948585510254,
                8.976055145263672,
                4.337708950042725
              ],
              "rotationX":42.35392108097903,
              "rotationY":12.487039779302876,
              "rotationZ":13.895978031482276,
              "group":"hair-emoshy",
              "faces":{
                "north":{
                  "texture":"#hair",
                  "uv":[
                    67.99999809265137,
                    75.0,
                    70.00000190734863,
                    84.0
                  ],
                  "autoUv":false
                },
                "east":{
                  "texture":"#hair",
                  "uv":[
                    70.00000190734863,
                    75.0,
                    75.0,
                    84.0
                  ],
                  "autoUv":false
                },
                "south":{
                  "texture":"#hair",
                  "uv":[
                    75.0,
                    75.0,
                    76.99999809265137,
                    84.0
                  ],
                  "autoUv":false
                },
                "west":{
                  "texture":"#hair",
                  "uv":[
                    57.0,
                    76.99999952316284,
                    61.00000190734863,
                    87.0
                  ],
                  "autoUv":false
                },
                "up":{
                  "texture":"#hair",
                  "uv":[
                    67.99999809265137,
                    43.99999809265137,
                    70.00000190734863,
                    46.00000190734863
                  ],
                  "autoUv":false
                },
                "down":{
                  "texture":"#hair",
                  "uv":[
                    76.99999809265137,
                    50.000000953674316,
                    75.0,
                    48.0
                  ],
                  "autoUv":false
                }
              },
              "children":[]
            },
            {
              "name":"Hairstrand.060",
              "from":[
                0.8657786846160889,
                -3.9569530487060547,
                -1.5068592429161072
              ],
              "to":[
                5.235163927078247,
                5.077831268310547,
                -0.2954140305519104
              ],
              "rotationOrigin":[
                3.050471305847168,
                5.077831268310547,
                -0.9011366367340088
              ],
              "rotationX":-7.188414662733348,
              "rotationY":4.960987521554641,
              "rotationZ":-9.341426039131122,
              "group":"hair-emoshy",
              "faces":{
                "north":{
                  "texture":"#hair",
                  "uv":[
                    75.0,
                    31.999998092651367,
                    81.0,
                    45.0
                  ],
                  "autoUv":false
                },
                "east":{
                  "texture":"#hair",
                  "uv":[
                    69.0,
                    72.0,
                    70.99999809265137,
                    84.99999976158142
                  ],
                  "autoUv":false
                },
                "south":{
                  "texture":"#hair",
                  "uv":[
                    88.00000190734863,
                    22.999998092651367,
                    94.00000190734863,
                    36.0
                  ],
                  "autoUv":false
                },
                "west":{
                  "texture":"#hair",
                  "uv":[
                    73.00000190734863,
                    72.0,
                    75.0,
                    84.99999976158142
                  ],
                  "autoUv":false
                },
                "up":{
                  "texture":"#hair",
                  "uv":[
                    67.99999809265137,
                    43.99999809265137,
                    70.00000190734863,
                    46.00000190734863
                  ],
                  "autoUv":false
                },
                "down":{
                  "texture":"#hair",
                  "uv":[
                    76.99999809265137,
                    50.000000953674316,
                    75.0,
                    48.0
                  ],
                  "autoUv":false
                }
              },
              "children":[]
            },
            {
              "name":"Hairstrand.061",
              "from":[
                6.102876901626587,
                -2.7000088691711426,
                5.693749159574509
              ],
              "to":[
                8.524044752120972,
                5.129810333251953,
                6.552871018648148
              ],
              "rotationOrigin":[
                7.313460826873779,
                5.129810333251953,
                6.123310089111328
              ],
              "rotationX":-8.823377534926811,
              "rotationY":15.30168304286332,
              "rotationZ":-14.783001892387137,
              "group":"hair-emoshy",
              "faces":{
                "north":{
                  "texture":"#hair",
                  "uv":[
                    67.99999809265137,
                    73.00000047683716,
                    72.0,
                    84.0
                  ],
                  "autoUv":false
                },
                "east":{
                  "texture":"#hair",
                  "uv":[
                    67.00000190734863,
                    72.0,
                    69.0,
                    82.99999952316284
                  ],
                  "autoUv":false
                },
                "south":{
                  "texture":"#hair",
                  "uv":[
                    67.99999809265137,
                    73.00000047683716,
                    72.0,
                    84.0
                  ],
                  "autoUv":false
                },
                "west":{
                  "texture":"#hair",
                  "uv":[
                    72.0,
                    73.00000047683716,
                    73.99999809265137,
                    84.0
                  ],
                  "autoUv":false
                },
                "up":{
                  "texture":"#hair",
                  "uv":[
                    67.99999809265137,
                    69.99999904632568,
                    70.99999809265137,
                    73.00000047683716
                  ],
                  "autoUv":false
                },
                "down":{
                  "texture":"#hair",
                  "uv":[
                    76.99999809265137,
                    50.000000953674316,
                    75.0,
                    48.0
                  ],
                  "autoUv":false
                }
              },
              "children":[]
            },
            {
              "name":"Hairstrand.063",
              "from":[
                5.6950589418411255,
                -2.1661529541015625,
                6.122598111629486
              ],
              "to":[
                7.754152178764343,
                5.345270156860352,
                7.351507723331451
              ],
              "rotationOrigin":[
                6.724605560302734,
                5.345270156860352,
                6.737052917480469
              ],
              "rotationX":-10.688538272717214,
              "rotationY":-16.237191855365165,
              "rotationZ":-18.213240714330723,
              "group":"hair-emoshy",
              "faces":{
                "north":{
                  "texture":"#hair",
                  "uv":[
                    67.99999809265137,
                    72.0,
                    72.0,
                    84.0
                  ],
                  "autoUv":false
                },
                "east":{
                  "texture":"#hair",
                  "uv":[
                    67.00000190734863,
                    71.00000095367432,
                    69.0,
                    82.99999952316284
                  ],
                  "autoUv":false
                },
                "south":{
                  "texture":"#hair",
                  "uv":[
                    67.99999809265137,
                    72.0,
                    72.0,
                    84.0
                  ],
                  "autoUv":false
                },
                "west":{
                  "texture":"#hair",
                  "uv":[
                    72.0,
                    72.0,
                    73.99999809265137,
                    84.0
                  ],
                  "autoUv":false
                },
                "up":{
                  "texture":"#hair",
                  "uv":[
                    67.99999809265137,
                    69.0,
                    70.99999809265137,
                    72.0
                  ],
                  "autoUv":false
                },
                "down":{
                  "texture":"#hair",
                  "uv":[
                    76.99999809265137,
                    50.000000953674316,
                    75.0,
                    48.0
                  ],
                  "autoUv":false
                }
              },
              "children":[]
            },
            {
              "name":"Hairstrand.064",
              "from":[
                4.292142629623413,
                -2.701904535293579,
                6.436160564422607
              ],
              "to":[
                6.351235628128052,
                0.6239480972290039,
                7.665070056915283
              ],
              "rotationOrigin":[
                5.321689128875732,
                0.6239480972290039,
                7.050615310668945
              ],
              "rotationX":-35.625395861667336,
              "rotationY":-3.9977434452674903,
              "rotationZ":-28.150238758519446,
              "group":"hair-emoshy",
              "faces":{
                "north":{
                  "texture":"#hair",
                  "uv":[
                    67.99999809265137,
                    76.99999952316284,
                    72.0,
                    84.0
                  ],
                  "autoUv":false
                },
                "east":{
                  "texture":"#hair",
                  "uv":[
                    67.00000190734863,
                    76.00000047683716,
                    69.0,
                    82.99999952316284
                  ],
                  "autoUv":false
                },
                "south":{
                  "texture":"#hair",
                  "uv":[
                    67.99999809265137,
                    76.99999952316284,
                    72.0,
                    84.0
                  ],
                  "autoUv":false
                },
                "west":{
                  "texture":"#hair",
                  "uv":[
                    72.0,
                    76.99999952316284,
                    73.99999809265137,
                    84.0
                  ],
                  "autoUv":false
                },
                "up":{
                  "texture":"#hair",
                  "uv":[
                    67.99999809265137,
                    73.99999952316284,
                    70.99999809265137,
                    76.99999952316284
                  ],
                  "autoUv":false
                },
                "down":{
                  "texture":"#hair",
                  "uv":[
                    76.99999809265137,
                    50.000000953674316,
                    75.0,
                    48.0
                  ],
                  "autoUv":false
                }
              },
              "children":[]
            },
            {
              "name":"Hairstrand.065",
              "from":[
                1.2133197784423828,
                -4.352783203125,
                -0.5900980234146118
              ],
              "to":[
                5.582706451416016,
                0.3411674499511719,
                0.7755404710769653
              ],
              "rotationOrigin":[
                3.398013114929199,
                0.3411674499511719,
                0.09272122383117676
              ],
              "rotationX":26.010301217966724,
              "rotationY":-3.3759307071923454,
              "rotationZ":2.6873503086593877,
              "group":"hair-emoshy",
              "faces":{
                "north":{
                  "texture":"#hair",
                  "uv":[
                    73.00000190734863,
                    34.99999809265137,
                    79.00000190734863,
                    43.99999809265137
                  ],
                  "autoUv":false
                },
                "east":{
                  "texture":"#hair",
                  "uv":[
                    67.99999809265137,
                    76.00000047683716,
                    70.99999809265137,
                    84.99999976158142
                  ],
                  "autoUv":false
                },
                "south":{
                  "texture":"#hair",
                  "uv":[
                    88.00000190734863,
                    25.999998092651367,
                    94.00000190734863,
                    34.99999809265137
                  ],
                  "autoUv":false
                },
                "west":{
                  "texture":"#hair",
                  "uv":[
                    72.0,
                    76.00000047683716,
                    75.0,
                    84.99999976158142
                  ],
                  "autoUv":false
                },
                "up":{
                  "texture":"#hair",
                  "uv":[
                    67.99999809265137,
                    43.99999809265137,
                    70.00000190734863,
                    46.00000190734863
                  ],
                  "autoUv":false
                },
                "down":{
                  "texture":"#hair",
                  "uv":[
                    76.99999809265137,
                    50.000000953674316,
                    75.0,
                    48.0
                  ],
                  "autoUv":false
                }
              },
              "children":[]
            }
          ]
        }
      ],
      "stepParentName":"Hair"
    }
  ],
  "groups":[]
}