{
  "textureWidth":16,
  "textureHeight":16,
  "textures":{
    "headphone":"headphones",
    "headphoneglow":"headphones"
  },
  "textureSizes":{
    "headphone":[
      32,
      32
    ],
    "headphoneglow":[
      32,
      32
    ]
  },
  "elements":[
    {
      "name":"Cube.016",
      "from":[
        -4.08177387714386,
        10.684188485145569,
        1.444780707359314
      ],
      "to":[
        -0.8303941488265991,
        13.93556821346283,
        3.0651975870132446
      ],
      "rotationOrigin":[
        -2.4560840129852295,
        12.3098783493042,
        2.2549891471862793
      ],
      "rotationZ":-84.65708019604652,
      "group":"earphone_left.001",
      "faces":{
        "north":{
          "texture":"#headphone",
          "uv":[
            1.0,
            1.0,
            3.0,
            3.0
          ],
          "autoUv":false,
          "rotation":270
        },
        "east":{
          "texture":"#headphone",
          "uv":[
            1.0,
            1.0,
            3.0,
            3.0
          ],
          "autoUv":false,
          "rotation":270
        },
        "south":{
          "texture":"#headphone",
          "uv":[
            1.0,
            1.0,
            3.0,
            3.0
          ],
          "autoUv":false,
          "rotation":270
        },
        "west":{
          "texture":"#headphone",
          "uv":[
            1.0,
            1.0,
            3.0,
            3.0
          ],
          "autoUv":false,
          "rotation":270
        },
        "up":{
          "texture":"#headphone",
          "uv":[
            1.0,
            1.0,
            3.0,
            3.0
          ],
          "autoUv":false,
          "rotation":270
        },
        "down":{
          "texture":"#headphone",
          "uv":[
            3.0,
            3.0,
            1.0,
            1.0
          ],
          "autoUv":false,
          "rotation":270
        }
      },
      "children":[],
      "stepParentName":"b_Neck"
    },
    {
      "name":"Cube.017",
      "from":[
        -3.681973695755005,
        11.083988666534424,
        2.117790997028351
      ],
      "to":[
        -1.230194330215454,
        13.535768032073975,
        3.4578916430473328
      ],
      "rotationOrigin":[
        -2.4560840129852295,
        12.3098783493042,
        2.787841320037842
      ],
      "rotationZ":-84.65708019604652,
      "group":"earphone_left.001",
      "faces":{
        "north":{
          "texture":"#headphone",
          "uv":[
            1.0,
            1.0,
            3.0,
            3.0
          ],
          "autoUv":false,
          "rotation":270
        },
        "east":{
          "texture":"#headphone",
          "uv":[
            1.0,
            1.0,
            3.0,
            3.0
          ],
          "autoUv":false,
          "rotation":270
        },
        "south":{
          "texture":"#headphone",
          "uv":[
            1.0,
            1.0,
            3.0,
            3.0
          ],
          "autoUv":false,
          "rotation":270
        },
        "west":{
          "texture":"#headphone",
          "uv":[
            1.0,
            1.0,
            3.0,
            3.0
          ],
          "autoUv":false,
          "rotation":270
        },
        "up":{
          "texture":"#headphone",
          "uv":[
            1.0,
            1.0,
            3.0,
            3.0
          ],
          "autoUv":false,
          "rotation":270
        },
        "down":{
          "texture":"#headphone",
          "uv":[
            3.0,
            3.0,
            1.0,
            1.0
          ],
          "autoUv":false,
          "rotation":270
        }
      },
      "children":[],
      "stepParentName":"b_Neck"
    },
    {
      "name":"Cube.018",
      "from":[
        -2.4507105946540833,
        12.381894558668137,
        2.972947835922241
      ],
      "to":[
        -1.2073306441307068,
        12.64249661564827,
        3.512033224105835
      ],
      "rotationOrigin":[
        -1.829020619392395,
        12.512195587158203,
        3.242490530014038
      ],
      "rotationZ":-84.65708019604652,
      "group":"earphone_left.001",
      "faces":{
        "north":{
          "texture":"#headphoneglow",
          "uv":[
            5.0,
            1.0,
            7.0,
            3.0
          ],
          "autoUv":false,
          "glow":240,
          "rotation":270
        },
        "east":{
          "texture":"#headphoneglow",
          "uv":[
            5.0,
            1.0,
            7.0,
            3.0
          ],
          "autoUv":false,
          "glow":240,
          "rotation":270
        },
        "south":{
          "texture":"#headphoneglow",
          "uv":[
            5.0,
            1.0,
            7.0,
            3.0
          ],
          "autoUv":false,
          "glow":240,
          "rotation":270
        },
        "west":{
          "texture":"#headphoneglow",
          "uv":[
            5.0,
            1.0,
            7.0,
            3.0
          ],
          "autoUv":false,
          "glow":240,
          "rotation":270
        },
        "up":{
          "texture":"#headphoneglow",
          "uv":[
            5.0,
            1.0,
            7.0,
            3.0
          ],
          "autoUv":false,
          "glow":240,
          "rotation":270
        },
        "down":{
          "texture":"#headphoneglow",
          "uv":[
            7.0,
            3.0,
            5.0,
            1.0
          ],
          "autoUv":false,
          "glow":240,
          "rotation":270
        }
      },
      "children":[],
      "stepParentName":"b_Neck"
    },
    {
      "name":"Cube.019",
      "from":[
        -3.5014343559741974,
        12.4432882219553,
        2.972947835922241
      ],
      "to":[
        -2.839532345533371,
        12.875401124358177,
        3.512033224105835
      ],
      "rotationOrigin":[
        -3.170483350753784,
        12.659344673156738,
        3.242490530014038
      ],
      "rotationZ":-84.65708019604652,
      "group":"earphone_left.001",
      "faces":{
        "north":{
          "texture":"#headphoneglow",
          "uv":[
            5.0,
            1.0,
            7.0,
            3.0
          ],
          "autoUv":false,
          "glow":240,
          "rotation":270
        },
        "east":{
          "texture":"#headphoneglow",
          "uv":[
            5.0,
            1.0,
            7.0,
            3.0
          ],
          "autoUv":false,
          "glow":240,
          "rotation":270
        },
        "south":{
          "texture":"#headphoneglow",
          "uv":[
            5.0,
            1.0,
            7.0,
            3.0
          ],
          "autoUv":false,
          "glow":240,
          "rotation":270
        },
        "west":{
          "texture":"#headphoneglow",
          "uv":[
            5.0,
            1.0,
            7.0,
            3.0
          ],
          "autoUv":false,
          "glow":240,
          "rotation":270
        },
        "up":{
          "texture":"#headphoneglow",
          "uv":[
            5.0,
            1.0,
            7.0,
            3.0
          ],
          "autoUv":false,
          "glow":240,
          "rotation":270
        },
        "down":{
          "texture":"#headphoneglow",
          "uv":[
            7.0,
            3.0,
            5.0,
            1.0
          ],
          "autoUv":false,
          "glow":240,
          "rotation":270
        }
      },
      "children":[],
      "stepParentName":"b_Neck"
    },
    {
      "name":"Cube.020",
      "from":[
        -3.3086071014404297,
        12.9048667922616,
        2.972947835922241
      ],
      "to":[
        -1.770462989807129,
        13.107464216649532,
        3.512033224105835
      ],
      "rotationOrigin":[
        -2.5395350456237793,
        13.006165504455566,
        3.242490530014038
      ],
      "rotationZ":5.342916332016121,
      "group":"earphone_left.001",
      "faces":{
        "north":{
          "texture":"#headphoneglow",
          "uv":[
            5.0,
            1.0,
            7.0,
            3.0
          ],
          "autoUv":false,
          "glow":240,
          "rotation":270
        },
        "east":{
          "texture":"#headphoneglow",
          "uv":[
            5.0,
            1.0,
            7.0,
            3.0
          ],
          "autoUv":false,
          "glow":240,
          "rotation":270
        },
        "south":{
          "texture":"#headphoneglow",
          "uv":[
            5.0,
            1.0,
            7.0,
            3.0
          ],
          "autoUv":false,
          "glow":240,
          "rotation":270
        },
        "west":{
          "texture":"#headphoneglow",
          "uv":[
            5.0,
            1.0,
            7.0,
            3.0
          ],
          "autoUv":false,
          "glow":240,
          "rotation":270
        },
        "up":{
          "texture":"#headphoneglow",
          "uv":[
            5.0,
            1.0,
            7.0,
            3.0
          ],
          "autoUv":false,
          "glow":240,
          "rotation":270
        },
        "down":{
          "texture":"#headphoneglow",
          "uv":[
            7.0,
            3.0,
            5.0,
            1.0
          ],
          "autoUv":false,
          "glow":240,
          "rotation":270
        }
      },
      "children":[],
      "stepParentName":"b_Neck"
    },
    {
      "name":"Cube.021",
      "from":[
        -3.3999452888965607,
        11.35810412466526,
        2.972947835922241
      ],
      "to":[
        -2.7380432784557343,
        11.790217027068138,
        3.512033224105835
      ],
      "rotationOrigin":[
        -3.0689942836761475,
        11.5741605758667,
        3.242490530014038
      ],
      "rotationZ":-84.65708019604652,
      "group":"earphone_left.001",
      "faces":{
        "north":{
          "texture":"#headphoneglow",
          "uv":[
            5.0,
            1.0,
            7.0,
            3.0
          ],
          "autoUv":false,
          "glow":240,
          "rotation":270
        },
        "east":{
          "texture":"#headphoneglow",
          "uv":[
            5.0,
            1.0,
            7.0,
            3.0
          ],
          "autoUv":false,
          "glow":240,
          "rotation":270
        },
        "south":{
          "texture":"#headphoneglow",
          "uv":[
            5.0,
            1.0,
            7.0,
            3.0
          ],
          "autoUv":false,
          "glow":240,
          "rotation":270
        },
        "west":{
          "texture":"#headphoneglow",
          "uv":[
            5.0,
            1.0,
            7.0,
            3.0
          ],
          "autoUv":false,
          "glow":240,
          "rotation":270
        },
        "up":{
          "texture":"#headphoneglow",
          "uv":[
            5.0,
            1.0,
            7.0,
            3.0
          ],
          "autoUv":false,
          "glow":240,
          "rotation":270
        },
        "down":{
          "texture":"#headphoneglow",
          "uv":[
            7.0,
            3.0,
            5.0,
            1.0
          ],
          "autoUv":false,
          "glow":240,
          "rotation":270
        }
      },
      "children":[],
      "stepParentName":"b_Neck"
    },
    {
      "name":"Cube.022",
      "from":[
        -3.2071175575256348,
        11.819683648645878,
        2.972947835922241
      ],
      "to":[
        -1.668973445892334,
        12.02228107303381,
        3.512033224105835
      ],
      "rotationOrigin":[
        -2.4380455017089844,
        11.920982360839844,
        3.242490530014038
      ],
      "rotationZ":5.342916332016121,
      "group":"earphone_left.001",
      "faces":{
        "north":{
          "texture":"#headphoneglow",
          "uv":[
            5.0,
            1.0,
            7.0,
            3.0
          ],
          "autoUv":false,
          "glow":240,
          "rotation":270
        },
        "east":{
          "texture":"#headphoneglow",
          "uv":[
            5.0,
            1.0,
            7.0,
            3.0
          ],
          "autoUv":false,
          "glow":240,
          "rotation":270
        },
        "south":{
          "texture":"#headphoneglow",
          "uv":[
            5.0,
            1.0,
            7.0,
            3.0
          ],
          "autoUv":false,
          "glow":240,
          "rotation":270
        },
        "west":{
          "texture":"#headphoneglow",
          "uv":[
            5.0,
            1.0,
            7.0,
            3.0
          ],
          "autoUv":false,
          "glow":240,
          "rotation":270
        },
        "up":{
          "texture":"#headphoneglow",
          "uv":[
            5.0,
            1.0,
            7.0,
            3.0
          ],
          "autoUv":false,
          "glow":240,
          "rotation":270
        },
        "down":{
          "texture":"#headphoneglow",
          "uv":[
            7.0,
            3.0,
            5.0,
            1.0
          ],
          "autoUv":false,
          "glow":240,
          "rotation":270
        }
      },
      "children":[],
      "stepParentName":"b_Neck"
    },
    {
      "name":"Cube.023",
      "from":[
        -4.08177387714386,
        10.684188485145569,
        -3.0651975870132446
      ],
      "to":[
        -0.8303941488265991,
        13.93556821346283,
        -1.444780707359314
      ],
      "rotationOrigin":[
        -2.4560840129852295,
        12.3098783493042,
        -2.2549891471862793
      ],
      "rotationZ":-84.65708019604652,
      "group":"earphone_right.001",
      "faces":{
        "north":{
          "texture":"#headphone",
          "uv":[
            1.0,
            1.0,
            3.0,
            3.0
          ],
          "autoUv":false,
          "rotation":270
        },
        "east":{
          "texture":"#headphone",
          "uv":[
            1.0,
            1.0,
            3.0,
            3.0
          ],
          "autoUv":false,
          "rotation":270
        },
        "south":{
          "texture":"#headphone",
          "uv":[
            1.0,
            1.0,
            3.0,
            3.0
          ],
          "autoUv":false,
          "rotation":270
        },
        "west":{
          "texture":"#headphone",
          "uv":[
            1.0,
            1.0,
            3.0,
            3.0
          ],
          "autoUv":false,
          "rotation":270
        },
        "up":{
          "texture":"#headphone",
          "uv":[
            1.0,
            1.0,
            3.0,
            3.0
          ],
          "autoUv":false,
          "rotation":270
        },
        "down":{
          "texture":"#headphone",
          "uv":[
            3.0,
            3.0,
            1.0,
            1.0
          ],
          "autoUv":false,
          "rotation":270
        }
      },
      "children":[],
      "stepParentName":"b_Neck"
    },
    {
      "name":"Cube.024",
      "from":[
        -3.681973695755005,
        11.083988666534424,
        -3.4578916430473328
      ],
      "to":[
        -1.230194330215454,
        13.535768032073975,
        -2.117790997028351
      ],
      "rotationOrigin":[
        -2.4560840129852295,
        12.3098783493042,
        -2.787841320037842
      ],
      "rotationZ":-84.65708019604652,
      "group":"earphone_right.001",
      "faces":{
        "north":{
          "texture":"#headphone",
          "uv":[
            1.0,
            1.0,
            3.0,
            3.0
          ],
          "autoUv":false,
          "rotation":270
        },
        "east":{
          "texture":"#headphone",
          "uv":[
            1.0,
            1.0,
            3.0,
            3.0
          ],
          "autoUv":false,
          "rotation":270
        },
        "south":{
          "texture":"#headphone",
          "uv":[
            1.0,
            1.0,
            3.0,
            3.0
          ],
          "autoUv":false,
          "rotation":270
        },
        "west":{
          "texture":"#headphone",
          "uv":[
            1.0,
            1.0,
            3.0,
            3.0
          ],
          "autoUv":false,
          "rotation":270
        },
        "up":{
          "texture":"#headphone",
          "uv":[
            1.0,
            1.0,
            3.0,
            3.0
          ],
          "autoUv":false,
          "rotation":270
        },
        "down":{
          "texture":"#headphone",
          "uv":[
            3.0,
            3.0,
            1.0,
            1.0
          ],
          "autoUv":false,
          "rotation":270
        }
      },
      "children":[],
      "stepParentName":"b_Neck"
    },
    {
      "name":"Cube.025",
      "from":[
        -2.387548863887787,
        12.005637615919113,
        -3.50298810005188
      ],
      "to":[
        -1.1441689133644104,
        12.266239672899246,
        -2.963902711868286
      ],
      "rotationOrigin":[
        -1.7658588886260986,
        12.13593864440918,
        -3.233445405960083
      ],
      "rotationZ":-84.65707336585736,
      "group":"earphone_right.001",
      "faces":{
        "north":{
          "texture":"#headphoneglow",
          "uv":[
            5.0,
            1.0,
            7.0,
            3.0
          ],
          "autoUv":false,
          "glow":240,
          "rotation":270
        },
        "east":{
          "texture":"#headphoneglow",
          "uv":[
            5.0,
            1.0,
            7.0,
            3.0
          ],
          "autoUv":false,
          "glow":240,
          "rotation":270
        },
        "south":{
          "texture":"#headphoneglow",
          "uv":[
            5.0,
            1.0,
            7.0,
            3.0
          ],
          "autoUv":false,
          "glow":240,
          "rotation":270
        },
        "west":{
          "texture":"#headphoneglow",
          "uv":[
            5.0,
            1.0,
            7.0,
            3.0
          ],
          "autoUv":false,
          "glow":240,
          "rotation":270
        },
        "up":{
          "texture":"#headphoneglow",
          "uv":[
            5.0,
            1.0,
            7.0,
            3.0
          ],
          "autoUv":false,
          "glow":240,
          "rotation":90
        },
        "down":{
          "texture":"#headphoneglow",
          "uv":[
            7.0,
            3.0,
            5.0,
            1.0
          ],
          "autoUv":false,
          "glow":240,
          "rotation":90
        }
      },
      "children":[],
      "stepParentName":"b_Neck"
    },
    {
      "name":"Cube.026",
      "from":[
        -3.387724667787552,
        11.526544943451881,
        -3.50298810005188
      ],
      "to":[
        -2.7258226573467255,
        11.95865784585476,
        -2.963902711868286
      ],
      "rotationOrigin":[
        -3.0567736625671387,
        11.74260139465332,
        -3.233445405960083
      ],
      "rotationZ":-84.65707336585736,
      "group":"earphone_right.001",
      "faces":{
        "north":{
          "texture":"#headphoneglow",
          "uv":[
            5.0,
            1.0,
            7.0,
            3.0
          ],
          "autoUv":false,
          "glow":240,
          "rotation":270
        },
        "east":{
          "texture":"#headphoneglow",
          "uv":[
            5.0,
            1.0,
            7.0,
            3.0
          ],
          "autoUv":false,
          "glow":240,
          "rotation":270
        },
        "south":{
          "texture":"#headphoneglow",
          "uv":[
            5.0,
            1.0,
            7.0,
            3.0
          ],
          "autoUv":false,
          "glow":240,
          "rotation":270
        },
        "west":{
          "texture":"#headphoneglow",
          "uv":[
            5.0,
            1.0,
            7.0,
            3.0
          ],
          "autoUv":false,
          "glow":240,
          "rotation":270
        },
        "up":{
          "texture":"#headphoneglow",
          "uv":[
            5.0,
            1.0,
            7.0,
            3.0
          ],
          "autoUv":false,
          "glow":240,
          "rotation":90
        },
        "down":{
          "texture":"#headphoneglow",
          "uv":[
            7.0,
            3.0,
            5.0,
            1.0
          ],
          "autoUv":false,
          "glow":240,
          "rotation":90
        }
      },
      "children":[],
      "stepParentName":"b_Neck"
    },
    {
      "name":"Cube.027",
      "from":[
        -2.4737572037579505,
        10.749716277462962,
        -3.50298810005188
      ],
      "to":[
        -2.271159712135604,
        12.287860397952077,
        -2.963902711868286
      ],
      "rotationOrigin":[
        -2.3724584579467773,
        11.51878833770752,
        -3.233445405960083
      ],
      "rotationZ":-84.65707336585736,
      "group":"earphone_right.001",
      "faces":{
        "north":{
          "texture":"#headphoneglow",
          "uv":[
            5.0,
            1.0,
            7.0,
            3.0
          ],
          "autoUv":false,
          "glow":240,
          "rotation":180
        },
        "east":{
          "texture":"#headphoneglow",
          "uv":[
            5.0,
            1.0,
            7.0,
            3.0
          ],
          "autoUv":false,
          "glow":240,
          "rotation":180
        },
        "south":{
          "texture":"#headphoneglow",
          "uv":[
            5.0,
            1.0,
            7.0,
            3.0
          ],
          "autoUv":false,
          "glow":240
        },
        "west":{
          "texture":"#headphoneglow",
          "uv":[
            5.0,
            1.0,
            7.0,
            3.0
          ],
          "autoUv":false,
          "glow":240,
          "rotation":180
        },
        "up":{
          "texture":"#headphoneglow",
          "uv":[
            5.0,
            1.0,
            7.0,
            3.0
          ],
          "autoUv":false,
          "glow":240
        },
        "down":{
          "texture":"#headphoneglow",
          "uv":[
            7.0,
            3.0,
            5.0,
            1.0
          ],
          "autoUv":false,
          "glow":240
        }
      },
      "children":[],
      "stepParentName":"b_Neck"
    },
    {
      "name":"Cube.028",
      "from":[
        -3.4892139732837677,
        12.611728087067604,
        -3.50298810005188
      ],
      "to":[
        -2.8273119628429413,
        13.043840989470482,
        -2.963902711868286
      ],
      "rotationOrigin":[
        -3.1582629680633545,
        12.827784538269043,
        -3.233445405960083
      ],
      "rotationZ":-84.65707336585736,
      "group":"earphone_right.001",
      "faces":{
        "north":{
          "texture":"#headphoneglow",
          "uv":[
            5.0,
            1.0,
            7.0,
            3.0
          ],
          "autoUv":false,
          "glow":240,
          "rotation":270
        },
        "east":{
          "texture":"#headphoneglow",
          "uv":[
            5.0,
            1.0,
            7.0,
            3.0
          ],
          "autoUv":false,
          "glow":240,
          "rotation":270
        },
        "south":{
          "texture":"#headphoneglow",
          "uv":[
            5.0,
            1.0,
            7.0,
            3.0
          ],
          "autoUv":false,
          "glow":240,
          "rotation":270
        },
        "west":{
          "texture":"#headphoneglow",
          "uv":[
            5.0,
            1.0,
            7.0,
            3.0
          ],
          "autoUv":false,
          "glow":240,
          "rotation":270
        },
        "up":{
          "texture":"#headphoneglow",
          "uv":[
            5.0,
            1.0,
            7.0,
            3.0
          ],
          "autoUv":false,
          "glow":240,
          "rotation":90
        },
        "down":{
          "texture":"#headphoneglow",
          "uv":[
            7.0,
            3.0,
            5.0,
            1.0
          ],
          "autoUv":false,
          "glow":240,
          "rotation":90
        }
      },
      "children":[],
      "stepParentName":"b_Neck"
    },
    {
      "name":"Cube.029",
      "from":[
        -2.575246032417008,
        11.834899421078685,
        -3.50298810005188
      ],
      "to":[
        -2.372648540794662,
        13.3730435415678,
        -2.963902711868286
      ],
      "rotationOrigin":[
        -2.473947286605835,
        12.603971481323242,
        -3.233445405960083
      ],
      "rotationZ":-84.65707336585736,
      "group":"earphone_right.001",
      "faces":{
        "north":{
          "texture":"#headphoneglow",
          "uv":[
            5.0,
            1.0,
            7.0,
            3.0
          ],
          "autoUv":false,
          "glow":240,
          "rotation":180
        },
        "east":{
          "texture":"#headphoneglow",
          "uv":[
            5.0,
            1.0,
            7.0,
            3.0
          ],
          "autoUv":false,
          "glow":240,
          "rotation":180
        },
        "south":{
          "texture":"#headphoneglow",
          "uv":[
            5.0,
            1.0,
            7.0,
            3.0
          ],
          "autoUv":false,
          "glow":240
        },
        "west":{
          "texture":"#headphoneglow",
          "uv":[
            5.0,
            1.0,
            7.0,
            3.0
          ],
          "autoUv":false,
          "glow":240,
          "rotation":180
        },
        "up":{
          "texture":"#headphoneglow",
          "uv":[
            5.0,
            1.0,
            7.0,
            3.0
          ],
          "autoUv":false,
          "glow":240
        },
        "down":{
          "texture":"#headphoneglow",
          "uv":[
            7.0,
            3.0,
            5.0,
            1.0
          ],
          "autoUv":false,
          "glow":240
        }
      },
      "children":[],
      "stepParentName":"b_Neck"
    },
    {
      "name":"Cube.015",
      "from":[
        -3.041913151741028,
        9.392809867858887,
        -2.3719944953918457
      ],
      "to":[
        0.34185779094696045,
        11.665253639221191,
        2.3719944953918457
      ],
      "rotationOrigin":[
        -1.3500276803970337,
        10.529031753540039,
        0.0
      ],
      "rotationZ":-63.9457746324118,
      "group":"neck-headphones_positioned",
      "faces":{
        "north":{
          "texture":"#headphone",
          "uv":[
            1.0,
            1.0,
            3.0,
            3.0
          ],
          "autoUv":false,
          "rotation":270
        },
        "east":{
          "texture":"#headphone",
          "uv":[
            1.0,
            1.0,
            3.0,
            3.0
          ],
          "autoUv":false,
          "rotation":270
        },
        "south":{
          "texture":"#headphone",
          "uv":[
            1.0,
            1.0,
            3.0,
            3.0
          ],
          "autoUv":false,
          "rotation":270
        },
        "west":{
          "texture":"#headphone",
          "uv":[
            1.0,
            1.0,
            3.0,
            3.0
          ],
          "autoUv":false,
          "rotation":270
        },
        "up":{
          "texture":"#headphone",
          "uv":[
            1.0,
            1.0,
            3.0,
            3.0
          ],
          "autoUv":false,
          "rotation":270
        },
        "down":{
          "texture":"#headphone",
          "uv":[
            3.0,
            3.0,
            1.0,
            1.0
          ],
          "autoUv":false,
          "rotation":270
        }
      },
      "children":[],
      "stepParentName":"b_Neck"
    }
  ],
  "groups":[]
}