{
  "textureWidth":128,
  "textureHeight":128,
  "textures":{
    "seraph":"seraph"
  },
  "textureSizes":{
    "seraph":[
      128,
      128
    ]
  },
  "elements":[
    {
      "name":"BustDClothed",
      "from":[
        -2.375727117061615,
        18.165557622909546,
        -2.8478424549102783
      ],
      "to":[
        0.1725010209180482,
        22.09968147906079,
        2.8478424549102783
      ],
      "rotationOrigin":[
        0.17250066995620728,
        22.099681854248047,
        0.0
      ],
      "rotationZ":-41.64116352033152,
      "group":"dclothed",
      "faces":{
        "north":{
          "texture":"#main",
          "uv":[
            87.0,
            10.0,
            92.0,
            18.0
          ],
          "autoUv":false
        },
        "east":{
          "texture":"#main",
          "uv":[
            114.0,
            10.0,
            126.0,
            18.0
          ],
          "autoUv":false
        },
        "south":{
          "texture":"#main",
          "uv":[
            104.0,
            10.0,
            109.0,
            18.0
          ],
          "autoUv":false
        },
        "west":{
          "texture":"#main",
          "uv":[
            92.0,
            11.0,
            104.0,
            19.0
          ],
          "autoUv":false
        },
        "up":{
          "texture":"#main",
          "uv":[
            92.0,
            4.0,
            104.0,
            11.0
          ],
          "autoUv":false,
          "rotation":90
        },
        "down":{
          "texture":"#main",
          "uv":[
            104.0,
            23.0,
            92.0,
            18.0
          ],
          "autoUv":false,
          "rotation":90
        }
      },
      "children":[],
      "stepParentName":"b_Bust"
    },
    {
      "name":"BustDClothed.001",
      "from":[
        -4.256445919127757,
        19.5144229373373,
        -2.8210663616152836
      ],
      "to":[
        -0.8067197455450943,
        21.089443639811137,
        2.8210663974789547
      ],
      "rotationOrigin":[
        -2.531582832336426,
        20.30193328857422,
        1.7931835571971533e-08
      ],
      "rotationZ":7.649559153414991,
      "group":"dclothed",
      "faces":{
        "north":{
          "texture":"#main",
          "uv":[
            86.0,
            17.0,
            92.0,
            20.0
          ],
          "autoUv":false
        },
        "east":{
          "texture":"#main",
          "uv":[
            92.0,
            18.0,
            104.0,
            20.0
          ],
          "autoUv":false
        },
        "south":{
          "texture":"#main",
          "uv":[
            110.0,
            17.0,
            104.0,
            20.0
          ],
          "autoUv":false,
          "rotation":180
        },
        "west":{
          "texture":"#main",
          "uv":[
            92.0,
            17.0,
            104.0,
            20.0
          ],
          "autoUv":false
        },
        "up":{
          "texture":"#main",
          "uv":[
            114.0,
            10.0,
            126.0,
            16.0
          ],
          "autoUv":false,
          "rotation":270
        },
        "down":{
          "texture":"#main",
          "uv":[
            104.0,
            26.0,
            92.0,
            20.0
          ],
          "autoUv":false,
          "rotation":270
        }
      },
      "children":[],
      "stepParentName":"b_Bust"
    },
    {
      "name":"BustDClothed.002",
      "from":[
        -3.244775898958089,
        18.31235310326266,
        -2.7948953927338387
      ],
      "to":[
        -1.8312944097272137,
        21.38975337256742,
        2.7948954283416008
      ],
      "rotationOrigin":[
        -2.5380351543426514,
        19.85105323791504,
        1.7803881036115854e-08
      ],
      "rotationZ":84.61525211756937,
      "group":"dclothed",
      "faces":{
        "north":{
          "texture":"#main",
          "uv":[
            88.0,
            19.0,
            92.0,
            26.0
          ],
          "autoUv":false
        },
        "east":{
          "texture":"#main",
          "uv":[
            92.0,
            21.0,
            104.0,
            23.0
          ],
          "autoUv":false
        },
        "south":{
          "texture":"#main",
          "uv":[
            104.0,
            19.0,
            108.0,
            26.0
          ],
          "autoUv":false
        },
        "west":{
          "texture":"#main",
          "uv":[
            92.0,
            19.0,
            104.0,
            26.0
          ],
          "autoUv":false
        },
        "up":{
          "texture":"#main",
          "uv":[
            92.0,
            15.0,
            104.0,
            19.0
          ],
          "autoUv":false,
          "rotation":270
        },
        "down":{
          "texture":"#main",
          "uv":[
            120.0,
            19.0,
            108.0,
            15.0
          ],
          "autoUv":false,
          "rotation":270
        }
      },
      "children":[],
      "stepParentName":"b_Bust"
    }
  ],
  "groups":[]
}